%YAML 1.1
%TAG !u! tag:unity3d.com,2011:
--- !u!74 &7400000
AnimationClip:
  m_ObjectHideFlags: 0
  m_CorrespondingSourceObject: {fileID: 0}
  m_PrefabInstance: {fileID: 0}
  m_PrefabAsset: {fileID: 0}
  m_Name: HoodSideRun
  serializedVersion: 6
  m_Legacy: 0
  m_Compressed: 0
  m_UseHighQualityCurve: 1
  m_RotationCurves: []
  m_CompressedRotationCurves: []
  m_EulerCurves: []
  m_PositionCurves: []
  m_ScaleCurves: []
  m_FloatCurves: []
  m_PPtrCurves:
  - curve:
    - time: 0
      value: {fileID: 21300000, guid: 23226b47911cb6a47be749463e3b61ed, type: 3}
    - time: 0.083333336
      value: {fileID: 21300000, guid: 874a7783844d4bb4ab1c4508d921648b, type: 3}
    - time: 0.16666667
      value: {fileID: 21300000, guid: 2e7817e63d0d0b147ac453b167f4680a, type: 3}
    - time: 0.25
      value: {fileID: 21300000, guid: a33f53344e89fe749b938b3e97e4abac, type: 3}
    - time: 0.33333334
      value: {fileID: 21300000, guid: 76d49401fc220084891d86603654135d, type: 3}
    - time: 0.41666666
      value: {fileID: 21300000, guid: 360d7b50bd4cc1d4bb067dda520adb8e, type: 3}
    - time: 0.5
      value: {fileID: 21300000, guid: 7fa99be3bdb37e648b6fb9d443ffbb79, type: 3}
    - time: 0.5833333
      value: {fileID: 21300000, guid: bab881465b68275418fcb800273f5b5b, type: 3}
    - time: 0.6666667
      value: {fileID: 21300000, guid: 38ce9de60a0ae8b4c8eb83ff2669846b, type: 3}
    - time: 0.75
      value: {fileID: 21300000, guid: da8886cb0c089654d9ebadbdd6cc03a5, type: 3}
    attribute: m_Sprite
    path: 
    classID: 212
    script: {fileID: 0}
  m_SampleRate: 12
  m_WrapMode: 0
  m_Bounds:
    m_Center: {x: 0, y: 0, z: 0}
    m_Extent: {x: 0, y: 0, z: 0}
  m_ClipBindingConstant:
    genericBindings:
    - serializedVersion: 2
      path: 0
      attribute: 0
      script: {fileID: 0}
      typeID: 212
      customType: 23
      isPPtrCurve: 1
    pptrCurveMapping:
    - {fileID: 21300000, guid: 23226b47911cb6a47be749463e3b61ed, type: 3}
    - {fileID: 21300000, guid: 874a7783844d4bb4ab1c4508d921648b, type: 3}
    - {fileID: 21300000, guid: 2e7817e63d0d0b147ac453b167f4680a, type: 3}
    - {fileID: 21300000, guid: a33f53344e89fe749b938b3e97e4abac, type: 3}
    - {fileID: 21300000, guid: 76d49401fc220084891d86603654135d, type: 3}
    - {fileID: 21300000, guid: 360d7b50bd4cc1d4bb067dda520adb8e, type: 3}
    - {fileID: 21300000, guid: 7fa99be3bdb37e648b6fb9d443ffbb79, type: 3}
    - {fileID: 21300000, guid: bab881465b68275418fcb800273f5b5b, type: 3}
    - {fileID: 21300000, guid: 38ce9de60a0ae8b4c8eb83ff2669846b, type: 3}
    - {fileID: 21300000, guid: da8886cb0c089654d9ebadbdd6cc03a5, type: 3}
  m_AnimationClipSettings:
    serializedVersion: 2
    m_AdditiveReferencePoseClip: {fileID: 0}
    m_AdditiveReferencePoseTime: 0
    m_StartTime: 0
    m_StopTime: 0.8333333
    m_OrientationOffsetY: 0
    m_Level: 0
    m_CycleOffset: 0
    m_HasAdditiveReferencePose: 0
    m_LoopTime: 1
    m_LoopBlend: 0
    m_LoopBlendOrientation: 0
    m_LoopBlendPositionY: 0
    m_LoopBlendPositionXZ: 0
    m_KeepOriginalOrientation: 0
    m_KeepOriginalPositionY: 1
    m_KeepOriginalPositionXZ: 0
    m_HeightFromFeet: 0
    m_Mirror: 0
  m_EditorCurves: []
  m_EulerEditorCurves: []
  m_HasGenericRootTransform: 0
  m_HasMotionFloatCurves: 0
  m_Events: []
